<?xml version="1.0" encoding="UTF-8"?>
<svg width="750px" height="403px" viewBox="0 0 750 403" version="1.1" xmlns="http://www.w3.org/2000/svg" xmlns:xlink="http://www.w3.org/1999/xlink">
    <!-- Generator: Sketch 46.2 (44496) - http://www.bohemiancoding.com/sketch -->
    <title>correlation_workflow_final_nostatus</title>
    <desc>Created with Sketch.</desc>
    <defs></defs>
    <g id="Page-1" stroke="none" stroke-width="1" fill="none" fill-rule="evenodd">
        <g id="correlation_workflow_final_nostatus" transform="translate(1.000000, 1.000000)">
            <polygon id="Shape" stroke="#FFFFFF" fill="#FFFFFF" fill-rule="nonzero" points="0 401 0 0 748 0 748 401"></polygon>
            <g id="graph2" transform="translate(152.000000, 140.000000)">
                <polygon id="Shape" stroke="#000000" fill="#F0F8FF" fill-rule="nonzero" points="0 0 164 0 164 184 0 184"></polygon>
                <text id="PJIN_Workflow" fill="#000000" font-family="Times-Roman, Times" font-size="10" font-weight="normal">
                    <tspan x="8.046" y="13">PJIN_Workflow</tspan>
                </text>
            </g>
            <g id="graph3" transform="translate(160.000000, 168.000000)">
                <polygon id="Shape" stroke="#000000" fill="#FFFFFF" fill-rule="nonzero" stroke-dasharray="1,5" points="0 56 0 0 148 0 148 56"></polygon>
                <text id="Workflow-input-ports" fill="#000000" font-family="Times-Roman, Times" font-size="10" font-weight="normal">
                    <tspan x="8.325" y="13">Workflow input ports</tspan>
                </text>
            </g>
            <g id="graph4" transform="translate(161.000000, 260.000000)">
                <polygon id="Shape" stroke="#000000" fill="#FFFFFF" fill-rule="nonzero" stroke-dasharray="1,5" points="0 56 0 0 146 0 146 56"></polygon>
                <text id="Workflow-output-ports" fill="#000000" font-family="Times-Roman, Times" font-size="10" font-weight="normal">
                    <tspan x="8.325" y="13">Workflow output ports</tspan>
                </text>
            </g>
            <g id="graph5" transform="translate(324.000000, 140.000000)">
                <polygon id="Shape" stroke="#000000" fill="#F0F8FF" fill-rule="nonzero" points="0 184 0 0 188 0 188 184"></polygon>
                <text id="PEARSON_Workflow" fill="#000000" font-family="Times-Roman, Times" font-size="10" font-weight="normal">
                    <tspan x="8.324" y="13">PEARSON_Workflow</tspan>
                </text>
            </g>
            <g id="graph6" transform="translate(356.000000, 168.000000)">
                <polygon id="Shape" stroke="#000000" fill="#FFFFFF" fill-rule="nonzero" stroke-dasharray="1,5" points="0 56 0 0 148 0 148 56"></polygon>
                <text id="Workflow-input-ports" fill="#000000" font-family="Times-Roman, Times" font-size="10" font-weight="normal">
                    <tspan x="8.325" y="13">Workflow input ports</tspan>
                </text>
            </g>
            <g id="graph7" transform="translate(332.000000, 260.000000)">
                <polygon id="Shape" stroke="#000000" fill="#FFFFFF" fill-rule="nonzero" stroke-dasharray="1,5" points="0 56 0 0 172 0 172 56"></polygon>
                <text id="Workflow-output-ports" fill="#000000" font-family="Times-Roman, Times" font-size="10" font-weight="normal">
                    <tspan x="8.325" y="13">Workflow output ports</tspan>
                </text>
            </g>
            <g id="graph8" transform="translate(520.000000, 140.000000)">
                <polygon id="Shape" stroke="#000000" fill="#AFC5D8" fill-rule="nonzero" points="0 184 0 0 174 0 174 184"></polygon>
                <text id="PHASE_Workflow" fill="#000000" font-family="Times-Roman, Times" font-size="10" font-weight="normal">
                    <tspan x="8.38" y="13">PHASE_Workflow</tspan>
                </text>
            </g>
            <g id="graph9" transform="translate(528.000000, 260.000000)">
                <polygon id="Shape" stroke="#000000" fill="#FFFFFF" fill-rule="nonzero" stroke-dasharray="1,5" points="0 56 0 0 158 0 158 56"></polygon>
                <text id="Workflow-output-ports" fill="#000000" font-family="Times-Roman, Times" font-size="10" font-weight="normal">
                    <tspan x="8.325" y="13">Workflow output ports</tspan>
                </text>
            </g>
            <g id="graph10" transform="translate(528.000000, 168.000000)">
                <polygon id="Shape" stroke="#000000" fill="#FFFFFF" fill-rule="nonzero" stroke-dasharray="1,5" points="0 56 0 0 148 0 148 56"></polygon>
                <text id="Workflow-input-ports" fill="#000000" font-family="Times-Roman, Times" font-size="10" font-weight="normal">
                    <tspan x="8.325" y="13">Workflow input ports</tspan>
                </text>
            </g>
            <g id="graph11" transform="translate(12.000000, 12.000000)">
                <polygon id="Shape" stroke="#000000" fill="#FFFFFF" fill-rule="nonzero" stroke-dasharray="1,5" points="0 56 0 0 723 0 723 56"></polygon>
                <text id="Workflow-input-ports" fill="#000000" font-family="Times-Roman, Times" font-size="10" font-weight="normal">
                    <tspan x="8.325" y="13">Workflow input ports</tspan>
                </text>
            </g>
            <g id="graph12" transform="translate(216.000000, 332.000000)">
                <polygon id="Shape" stroke="#000000" fill="#FFFFFF" fill-rule="nonzero" stroke-dasharray="1,5" points="0 56 0 0 416 0 416 56"></polygon>
                <text id="Workflow-output-ports" fill="#000000" font-family="Times-Roman, Times" font-size="10" font-weight="normal">
                    <tspan x="8.325" y="13">Workflow output ports</tspan>
                </text>
            </g>
            <g id="node3" transform="translate(286.000000, 200.000000)" stroke="#000000" fill-rule="nonzero" fill="#FF4040">
                <polygon id="Shape" points="7 0 0 9 14 9"></polygon>
            </g>
            <g id="node4" transform="translate(167.000000, 196.000000)">
                <polygon id="Shape" stroke="#000000" fill="#8ED6F0" fill-rule="nonzero" points="61.347 0 0.653 0 0.653 20 61.347 20"></polygon>
                <text id="inputBody" fill="#000000" font-family="Helvetica" font-size="10" font-weight="normal">
                    <tspan x="8.5" y="13">inputBody</tspan>
                </text>
            </g>
            <g id="node9" transform="translate(181.000000, 232.000000)">
                <polygon id="Shape" stroke="#000000" fill="#7AAFFF" fill-rule="nonzero" points="61.998 0 0.002 0 0.002 20 61.998 20"></polygon>
                <text id="PIJN_Corr" fill="#000000" font-family="Helvetica" font-size="10" font-weight="normal">
                    <tspan x="7.5" y="13">PIJN_Corr</tspan>
                </text>
            </g>
            <g id="edge5" transform="translate(195.000000, 217.000000)" stroke="#000000">
                <path d="M3,0 C3,2.026 3.377,4.033 4.007,5.973" id="Shape"></path>
                <polygon id="Shape" fill="#000000" fill-rule="nonzero" points="7.139 4.41 8.694 14.89 0.943 7.667"></polygon>
            </g>
            <g id="node5" transform="translate(231.000000, 196.000000)">
                <polygon id="Shape" stroke="#000000" fill="#8ED6F0" fill-rule="nonzero" points="51.341 0 0.659 0 0.659 20 51.341 20"></polygon>
                <text id="sentinel" fill="#000000" font-family="Helvetica" font-size="10" font-weight="normal">
                    <tspan x="8.5" y="13">sentinel</tspan>
                </text>
            </g>
            <g id="node7" transform="translate(285.000000, 295.000000)" stroke="#000000" fill-rule="nonzero" fill="#66CD00">
                <polygon id="Shape" points="7 9 14 0 0 0"></polygon>
            </g>
            <g id="node8" transform="translate(169.000000, 288.000000)">
                <polygon id="Shape" stroke="#000000" fill="#8ED6F0" fill-rule="nonzero" points="111.192 0 0.808 0 0.808 20 111.192 20"></polygon>
                <text id="PIJN_response_body" fill="#000000" font-family="Helvetica" font-size="10" font-weight="normal">
                    <tspan x="8" y="13">PIJN_response_body</tspan>
                </text>
            </g>
            <g id="node47" transform="translate(224.000000, 360.000000)">
                <polygon id="Shape" stroke="#000000" fill="#8ED6F0" fill-rule="nonzero" points="111.192 0 0.808 0 0.808 20 111.192 20"></polygon>
                <text id="PIJN_response_body" fill="#000000" font-family="Helvetica" font-size="10" font-weight="normal">
                    <tspan x="8" y="13">PIJN_response_body</tspan>
                </text>
            </g>
            <g id="edge41" transform="translate(225.000000, 309.000000)" stroke="#000000">
                <path d="M0,0 C0,29.0353 42.486,20.1365 52.776,39.9846" id="Shape"></path>
                <polygon id="Shape" fill="#000000" fill-rule="nonzero" points="56.249 39.479 55 50 49.415 40.9966"></polygon>
            </g>
            <g id="edge7" transform="translate(216.000000, 252.000000)" stroke="#000000">
                <path d="M0.401,0.208 C3.171,6.63 6.51,15.682 8.088,24.959" id="Shape"></path>
                <polygon id="Shape" fill="#000000" fill-rule="nonzero" points="11.581 24.724 9 35 4.61 25.357"></polygon>
            </g>
            <g id="node14" transform="translate(482.000000, 200.000000)" stroke="#000000" fill-rule="nonzero" fill="#FF4040">
                <polygon id="Shape" points="7 0 0 9 14 9"></polygon>
            </g>
            <g id="node15" transform="translate(363.000000, 196.000000)">
                <polygon id="Shape" stroke="#000000" fill="#8ED6F0" fill-rule="nonzero" points="61.347 0 0.653 0 0.653 20 61.347 20"></polygon>
                <text id="inputBody" fill="#000000" font-family="Helvetica" font-size="10" font-weight="normal">
                    <tspan x="8.5" y="13">inputBody</tspan>
                </text>
            </g>
            <g id="node20" transform="translate(356.000000, 232.000000)">
                <polygon id="Shape" stroke="#000000" fill="#7AAFFF" fill-rule="nonzero" points="0.583 0 0.583 20 89.417 20 89.417 0"></polygon>
                <text id="PEARSON_Corr" fill="#000000" font-family="Helvetica" font-size="10" font-weight="normal">
                    <tspan x="8" y="13">PEARSON_Corr</tspan>
                </text>
            </g>
            <g id="edge14" transform="translate(391.000000, 217.000000)" stroke="#000000">
                <path d="M3,0 C3,1.573 3.14,3.182 3.381,4.785" id="Shape"></path>
                <polygon id="Shape" fill="#000000" fill-rule="nonzero" points="6.865 4.274 6.009 14.835 0.093 6.046"></polygon>
            </g>
            <g id="node16" transform="translate(427.000000, 196.000000)">
                <polygon id="Shape" stroke="#000000" fill="#8ED6F0" fill-rule="nonzero" points="51.341 0 0.659 0 0.659 20 51.341 20"></polygon>
                <text id="sentinel" fill="#000000" font-family="Helvetica" font-size="10" font-weight="normal">
                    <tspan x="8.5" y="13">sentinel</tspan>
                </text>
            </g>
            <g id="node18" transform="translate(482.000000, 295.000000)" stroke="#000000" fill-rule="nonzero" fill="#66CD00">
                <polygon id="Shape" points="7 9 14 0 0 0"></polygon>
            </g>
            <g id="node19" transform="translate(339.000000, 288.000000)">
                <polygon id="Shape" stroke="#000000" fill="#8ED6F0" fill-rule="nonzero" points="139.109 0 0.891 0 0.891 20 139.109 20"></polygon>
                <text id="PEARSON_response_body" fill="#000000" font-family="Helvetica" font-size="10" font-weight="normal">
                    <tspan x="8.5" y="13">PEARSON_response_body</tspan>
                </text>
            </g>
            <g id="node45" transform="translate(339.000000, 360.000000)">
                <polygon id="Shape" stroke="#000000" fill="#8ED6F0" fill-rule="nonzero" points="139.109 0 0.891 0 0.891 20 139.109 20"></polygon>
                <text id="PEARSON_response_body" fill="#000000" font-family="Helvetica" font-size="10" font-weight="normal">
                    <tspan x="8.5" y="13">PEARSON_response_body</tspan>
                </text>
            </g>
            <g id="edge57" transform="translate(405.000000, 309.000000)" stroke="#000000">
                <path d="M4,0 C4,18.4028 4,25.3757 4,39.8495" id="Shape"></path>
                <polygon id="Shape" fill="#000000" fill-rule="nonzero" points="7.5 40 4 50 0.5 40"></polygon>
            </g>
            <g id="edge12" transform="translate(403.000000, 252.000000)" stroke="#000000">
                <path d="M0.619,0.014 C2.333,6.501 4.431,15.713 5.425,25.007" id="Shape"></path>
                <polygon id="Shape" fill="#000000" fill-rule="nonzero" points="8.92 24.816 6 35 1.932 25.217"></polygon>
            </g>
            <g id="node25" transform="translate(664.000000, 295.000000)" stroke="#000000" fill-rule="nonzero" fill="#66CD00">
                <polygon id="Shape" points="7 9 14 0 0 0"></polygon>
            </g>
            <g id="node26" transform="translate(536.000000, 288.000000)">
                <polygon id="Shape" stroke="#000000" fill="#8ED6F0" fill-rule="nonzero" points="123.361 0 0.639 0 0.639 20 123.361 20"></polygon>
                <text id="PHASE_response_body" fill="#000000" font-family="Helvetica" font-size="10" font-weight="normal">
                    <tspan x="8" y="13">PHASE_response_body</tspan>
                </text>
            </g>
            <g id="node46" transform="translate(482.000000, 360.000000)">
                <polygon id="Shape" stroke="#000000" fill="#8ED6F0" fill-rule="nonzero" points="123.361 0 0.639 0 0.639 20 123.361 20"></polygon>
                <text id="PHASE_response_body" fill="#000000" font-family="Helvetica" font-size="10" font-weight="normal">
                    <tspan x="8" y="13">PHASE_response_body</tspan>
                </text>
            </g>
            <g id="edge25" transform="translate(542.000000, 309.000000)" stroke="#000000">
                <path d="M56,0 C56,28.7475 14.286,20.3198 4.184,40.0639" id="Shape"></path>
                <polygon id="Shape" fill="#000000" fill-rule="nonzero" points="7.565 40.9844 2 50 0.728 39.4818"></polygon>
            </g>
            <g id="node28" transform="translate(654.000000, 200.000000)" stroke="#000000" fill-rule="nonzero" fill="#FF4040">
                <polygon id="Shape" points="7 0 0 9 14 9"></polygon>
            </g>
            <g id="node29" transform="translate(535.000000, 196.000000)">
                <polygon id="Shape" stroke="#000000" fill="#8ED6F0" fill-rule="nonzero" points="61.347 0 0.653 0 0.653 20 61.347 20"></polygon>
                <text id="inputBody" fill="#000000" font-family="Helvetica" font-size="10" font-weight="normal">
                    <tspan x="8.5" y="13">inputBody</tspan>
                </text>
            </g>
            <g id="node31" transform="translate(544.000000, 232.000000)">
                <polygon id="Shape" stroke="#000000" fill="#5980BB" fill-rule="nonzero" points="75.168 0 0.832 0 0.832 20 75.168 20"></polygon>
                <text id="PHASE_Corr" fill="#000000" font-family="Helvetica" font-size="10" font-weight="normal">
                    <tspan x="8.5" y="13">PHASE_Corr</tspan>
                </text>
            </g>
            <g id="edge21" transform="translate(564.000000, 217.000000)" stroke="#000000">
                <path d="M2,0 C2,2.028 2.4,4.015 3.075,5.923" id="Shape"></path>
                <polygon id="Shape" fill="#000000" fill-rule="nonzero" points="6.138 4.229 8.14 14.633 0.087 7.749"></polygon>
            </g>
            <g id="node30" transform="translate(599.000000, 196.000000)">
                <polygon id="Shape" stroke="#000000" fill="#8ED6F0" fill-rule="nonzero" points="51.341 0 0.659 0 0.659 20 51.341 20"></polygon>
                <text id="sentinel" fill="#000000" font-family="Helvetica" font-size="10" font-weight="normal">
                    <tspan x="8.5" y="13">sentinel</tspan>
                </text>
            </g>
            <g id="edge19" transform="translate(587.000000, 252.000000)" stroke="#000000">
                <path d="M0.417,0.092 C3.826,6.454 7.935,15.459 9.878,24.817" id="Shape"></path>
                <polygon id="Shape" fill="#000000" fill-rule="nonzero" points="13.384 24.677 11 35 6.426 25.443"></polygon>
            </g>
            <g id="node35" transform="translate(713.000000, 44.000000)" stroke="#000000" fill-rule="nonzero" fill="#FF4040">
                <polygon id="Shape" points="7 0 0 9 14 9"></polygon>
            </g>
            <g id="node36" transform="translate(118.000000, 40.000000)">
                <polygon id="Shape" stroke="#000000" fill="#8ED6F0" fill-rule="nonzero" points="103.41 0 0.59 0 0.59 20 103.41 20"></polygon>
                <text id="CSF_File_Directory" fill="#000000" font-family="Helvetica" font-size="10" font-weight="normal">
                    <tspan x="8" y="13">CSF_File_Directory</tspan>
                </text>
            </g>
            <g id="node50" transform="translate(296.000000, 76.000000)">
                <polygon id="Shape" stroke="#000000" fill="#9A7F5B" fill-rule="nonzero" points="115.587 0 0.413 0 0.413 20 115.587 20"></polygon>
                <text id="CreateCorrelationLists" fill="#000000" font-family="Helvetica" font-size="10" font-weight="normal">
                    <tspan x="8" y="13">CreateCorrelationLists</tspan>
                </text>
            </g>
            <g id="edge49" transform="translate(170.000000, 61.000000)" stroke="#000000">
                <path d="M0,0 C0,12.163 64.031,18.327 116.548,21.338" id="Shape"></path>
                <polygon id="Shape" fill="#000000" fill-rule="nonzero" points="116.743 17.843 126.538 21.882 116.363 24.833"></polygon>
            </g>
            <g id="node37" transform="translate(20.000000, 40.000000)">
                <polygon id="Shape" stroke="#000000" fill="#8ED6F0" fill-rule="nonzero" points="93.354 0 0.6459 0 0.6459 20 93.354 20"></polygon>
                <text id="Output_File_Path" fill="#000000" font-family="Helvetica" font-size="10" font-weight="normal">
                    <tspan x="8" y="13">Output_File_Path</tspan>
                </text>
            </g>
            <g id="edge59" transform="translate(67.000000, 61.000000)" stroke="#000000">
                <path d="M0,0 C0,21.922 134.685,25.071 219.524,24.881" id="Shape"></path>
                <polygon id="Shape" fill="#000000" fill-rule="nonzero" points="219.598 21.381 229.611 24.842 219.625 28.381"></polygon>
            </g>
            <g id="node38" transform="translate(486.000000, 40.000000)">
                <polygon id="Shape" stroke="#000000" fill="#8ED6F0" fill-rule="nonzero" points="105.258 0 0.742 0 0.742 20 105.258 20"></polygon>
                <text id="Seizure_Start_Time" fill="#000000" font-family="Helvetica" font-size="10" font-weight="normal">
                    <tspan x="8.5" y="13">Seizure_Start_Time</tspan>
                </text>
            </g>
            <g id="node49" transform="translate(482.000000, 112.000000)">
                <polygon id="Shape" stroke="#000000" fill="#9A7F5B" fill-rule="nonzero" points="113.338 0 0.662 0 0.662 20 113.338 20"></polygon>
                <text id="SetCorrMeasureFlags" fill="#000000" font-family="Helvetica" font-size="10" font-weight="normal">
                    <tspan x="8" y="13">SetCorrMeasureFlags</tspan>
                </text>
            </g>
            <g id="edge33" transform="translate(535.000000, 61.000000)" stroke="#000000">
                <path d="M4,0 C4,13.577 4,28.883 4,40.637" id="Shape"></path>
                <polygon id="Shape" fill="#000000" fill-rule="nonzero" points="7.5 40.647 4 50.647 0.5 40.646"></polygon>
            </g>
            <g id="edge67" transform="translate(411.000000, 61.000000)" stroke="#000000">
                <path d="M128,0 C128,12.247 63.421,18.4 10.572,21.385" id="Shape"></path>
                <polygon id="Shape" fill="#000000" fill-rule="nonzero" points="10.694 24.883 0.521 21.923 10.319 17.893"></polygon>
            </g>
            <g id="node39" transform="translate(303.000000, 40.000000)">
                <polygon id="Shape" stroke="#000000" fill="#8ED6F0" fill-rule="nonzero" points="101.261 0 0.739 0 0.739 20 101.261 20"></polygon>
                <text id="Seizure_End_Time" fill="#000000" font-family="Helvetica" font-size="10" font-weight="normal">
                    <tspan x="8.5" y="13">Seizure_End_Time</tspan>
                </text>
            </g>
            <g id="edge55" transform="translate(350.000000, 61.000000)" stroke="#000000">
                <path d="M4,0 C4,1.51 4,3.074 4,4.646" id="Shape"></path>
                <polygon id="Shape" fill="#000000" fill-rule="nonzero" points="7.5 4.654 4 14.654 0.5 4.654"></polygon>
            </g>
            <g id="node40" transform="translate(226.000000, 40.000000)">
                <polygon id="Shape" stroke="#000000" fill="#8ED6F0" fill-rule="nonzero" points="73.344 0 0.656 0 0.656 20 73.344 20"></polygon>
                <text id="Lag_Window" fill="#000000" font-family="Helvetica" font-size="10" font-weight="normal">
                    <tspan x="8" y="13">Lag_Window</tspan>
                </text>
            </g>
            <g id="edge61" transform="translate(263.000000, 61.000000)" stroke="#000000">
                <path d="M0,0 C0,7.003 10.203,12.007 23.775,15.565" id="Shape"></path>
                <polygon id="Shape" fill="#000000" fill-rule="nonzero" points="24.651 12.175 33.626 17.805 23.099 19.001"></polygon>
            </g>
            <g id="node41" transform="translate(408.000000, 40.000000)">
                <polygon id="Shape" stroke="#000000" fill="#8ED6F0" fill-rule="nonzero" points="75.262 0 0.738 0 0.738 20 75.262 20"></polygon>
                <text id="Channel_List" fill="#000000" font-family="Helvetica" font-size="10" font-weight="normal">
                    <tspan x="8.5" y="13">Channel_List</tspan>
                </text>
            </g>
            <g id="edge69" transform="translate(411.000000, 61.000000)" stroke="#000000">
                <path d="M35,0 C35,7.142 24.489,12.198 10.572,15.762" id="Shape"></path>
                <polygon id="Shape" fill="#000000" fill-rule="nonzero" points="11.001 19.251 0.481 17.998 9.487 12.417"></polygon>
            </g>
            <g id="node42" transform="translate(594.000000, 40.000000)">
                <polygon id="Shape" stroke="#000000" fill="#8ED6F0" fill-rule="nonzero" points="115.257 0 0.743 0 0.743 20 115.257 20"></polygon>
                <text id="Correlation_Measures" fill="#000000" font-family="Helvetica" font-size="10" font-weight="normal">
                    <tspan x="8.5" y="13">Correlation_Measures</tspan>
                </text>
            </g>
            <g id="edge47" transform="translate(595.000000, 61.000000)" stroke="#000000">
                <path d="M57,0 C57,25.211 34.788,39.861 10.06,48.359" id="Shape"></path>
                <polygon id="Shape" fill="#000000" fill-rule="nonzero" points="11.088 51.704 0.5 51.324 9.014 45.018"></polygon>
            </g>
            <g id="node44" transform="translate(610.000000, 367.000000)" stroke="#000000" fill-rule="nonzero" fill="#66CD00">
                <polygon id="Shape" points="7 9 14 0 0 0"></polygon>
            </g>
            <g id="node48" transform="translate(293.000000, 112.000000)">
                <polygon id="Shape" stroke="#000000" fill="#9A7F5B" fill-rule="nonzero" points="0.821 0 0.821 20 121.179 20 121.179 0"></polygon>
                <text id="CorrelationInputParams" fill="#000000" font-family="Helvetica" font-size="10" font-weight="normal">
                    <tspan x="8" y="13">CorrelationInputParams</tspan>
                </text>
            </g>
            <g id="edge29" transform="translate(194.000000, 126.000000)" stroke="#000000">
                <path d="M99.769,0.614 C74.413,3.1 48.39,7.226 38,14 C17.03,27.673 6.794,37.453 4.504,58.742" id="Shape"></path>
                <polygon id="Shape" fill="#000000" fill-rule="nonzero" points="7.987 59.184 4 69 0.995 58.84"></polygon>
            </g>
            <g id="edge39" transform="translate(363.000000, 132.000000)" stroke="#000000">
                <path d="M0.277,0.326 C10.524,11.524 26.103,31.506 30.06,53.029" id="Shape"></path>
                <polygon id="Shape" fill="#000000" fill-rule="nonzero" points="33.546 52.716 31 63 26.577 53.372"></polygon>
            </g>
            <g id="edge35" transform="translate(414.000000, 126.000000)" stroke="#000000">
                <path d="M0.393,0.044 C35.172,2.525 75.062,6.827 91,14 C120.907,27.46 146.313,31.664 151.166,58.852" id="Shape"></path>
                <polygon id="Shape" fill="#000000" fill-rule="nonzero" points="154.669 58.747 152 69 147.692 59.32"></polygon>
            </g>
            <g id="edge31" transform="translate(253.000000, 127.000000)" stroke="#000000">
                <path d="M229.367,0.282 C208.508,1.822 184.683,3.54 163,5 C148.561,5.973 45.156,5.148 33,13 C12.87,26.003 5.845,37.033 4.334,57.755" id="Shape"></path>
                <polygon id="Shape" fill="#000000" fill-rule="nonzero" points="7.824 58.119 4 68 0.827 57.891"></polygon>
            </g>
            <g id="edge65" transform="translate(449.000000, 132.000000)" stroke="#000000">
                <path d="M46.135,0.07 C41.411,2.183 36.91,4.788 33,8 C14.483,23.212 6.273,32.62 4.419,52.872" id="Shape"></path>
                <polygon id="Shape" fill="#000000" fill-rule="nonzero" points="7.91 53.153 4 63 0.916 52.864"></polygon>
            </g>
            <g id="edge37" transform="translate(582.000000, 132.000000)" stroke="#000000">
                <path d="M0.865,0.07 C5.589,2.183 10.09,4.788 14,8 C32.517,23.212 40.727,32.62 42.581,52.872" id="Shape"></path>
                <polygon id="Shape" fill="#000000" fill-rule="nonzero" points="46.084 52.864 43 63 39.09 53.153"></polygon>
            </g>
            <g id="edge43" transform="translate(343.000000, 96.000000)" stroke="#000000">
                <path d="M4.232,0.291 C3.875,2.043 3.649,3.934 3.553,5.862" id="Shape"></path>
                <polygon id="Shape" fill="#000000" fill-rule="nonzero" points="7.052 5.729 4.284 15.956 0.071 6.234"></polygon>
            </g>
            <g id="edge45" transform="translate(349.000000, 96.000000)" stroke="#000000">
                <path d="M3.646,0.291 C3.575,2.043 3.53,3.934 3.511,5.862" id="Shape"></path>
                <polygon id="Shape" fill="#000000" fill-rule="nonzero" points="7.011 5.906 3.657 15.956 0.012 6.007"></polygon>
            </g>
            <g id="edge51" transform="translate(351.000000, 96.000000)" stroke="#000000">
                <path d="M4.354,0.291 C4.425,2.043 4.47,3.934 4.489,5.862" id="Shape"></path>
                <polygon id="Shape" fill="#000000" fill-rule="nonzero" points="7.988 6.007 4.343 15.956 0.989 5.906"></polygon>
            </g>
            <g id="edge53" transform="translate(354.000000, 96.000000)" stroke="#000000">
                <path d="M4.061,0.291 C4.275,2.043 4.411,3.934 4.468,5.862" id="Shape"></path>
                <polygon id="Shape" fill="#000000" fill-rule="nonzero" points="7.961 6.117 4.03 15.956 0.967 5.813"></polygon>
            </g>
            <g id="edge63" transform="translate(357.000000, 96.000000)" stroke="#000000">
                <path d="M3.768,0.291 C4.125,2.043 4.351,3.934 4.447,5.862" id="Shape"></path>
                <polygon id="Shape" fill="#000000" fill-rule="nonzero" points="7.929 6.234 3.716 15.956 0.948 5.729"></polygon>
            </g>
            <g id="edge27" transform="translate(346.000000, 96.000000)" stroke="#000000">
                <path d="M3.939,0.291 C3.725,2.043 3.589,3.934 3.532,5.862" id="Shape"></path>
                <polygon id="Shape" fill="#000000" fill-rule="nonzero" points="7.033 5.813 3.97 15.956 0.039 6.117"></polygon>
            </g>
        </g>
    </g>
</svg>