Input,Description
Patient ID,The patient ID from the patient demographics page
Path to CSF Files,The full path to the CSF fules produced in step 1. 
Coupling Measures,The list of coupling measures you'd like to select